<svg version="1.1" xmlns="http://www.w3.org/2000/svg" width="64" height="64" viewBox="0 0 64 64">
<title>development-o</title>
<path fill="#333" d="M15.071 22.1h4.186v4.014h-4.186v-4.014z"></path>
<path fill="#333" d="M15.071 28.914h4.186v4.014h-4.186v-4.014z"></path>
<path fill="#333" d="M15.071 35.871h4.186v4.014h-4.186v-4.014z"></path>
<path fill="#333" d="M15.071 42.943h4.186v4.014h-4.186v-4.014z"></path>
<path fill="#333" d="M22.286 22.1h4.186v4.014h-4.186v-4.014z"></path>
<path fill="#333" d="M39.071 40.2h4.186v4.014h-4.186v-4.014z"></path>
<path fill="#333" d="M44.643 40.2h4.186v4.014h-4.186v-4.014z"></path>
<path fill="#333" d="M39.071 45.771h4.186v4.014h-4.186v-4.014z"></path>
<path fill="#333" d="M44.643 45.771h4.186v4.014h-4.186v-4.014z"></path>
<path fill="#333" d="M39.071 51.543h4.186v4.014h-4.186v-4.014z"></path>
<path fill="#333" d="M44.643 51.543h4.186v4.014h-4.186v-4.014z"></path>
<path fill="#333" d="M58.286 62.171h-5.514v-25.157c0-0.5-0.414-0.914-0.914-0.914h-5.171v-25.786c0-0.5-0.414-0.914-0.914-0.914h-17.043v-3.857h25.729c0.5 0 0.914-0.414 0.914-0.914s-0.414-0.914-0.914-0.914h-25.729v-2.8c0-0.5-0.414-0.914-0.914-0.914s-0.914 0.414-0.914 0.914v2.8h-2.529c-0.5 0-0.914 0.414-0.914 0.914s0.414 0.914 0.914 0.914h2.529v3.857h-5.843c-0.5 0-0.914 0.414-0.914 0.914v6.229h-8.686c-0.5 0-0.914 0.414-0.914 0.914v44.729h-4.829c-0.5 0-0.914 0.414-0.914 0.914s0.414 0.914 0.914 0.914h52.571c0.5 0 0.914-0.414 0.914-0.914 0-0.514-0.4-0.929-0.914-0.929zM50.943 62.171h-14.014v-24.243h14.014v24.243zM31.543 22.057h13.314v4.257h-13.3v-4.257zM31.543 28.443h13.314v4.029h-13.3v-4.029zM31.543 40.971h3.557v4.586h-3.557v-4.586zM31.543 47.671h3.557v14.5h-3.557v-14.5zM36.014 36.1c-0.5 0-0.914 0.414-0.914 0.914v1.843h-3.557v-4.257h13.314v1.514h-8.843zM21.957 11.214h22.9v8.729h-13.3v-2.5c0-0.5-0.414-0.914-0.914-0.914h-8.671v-5.314zM12.371 18.357h17.343v43.814h-3v-11.943c0-0.5-0.414-0.914-0.914-0.914h-10.286c-0.5 0-0.914 0.414-0.914 0.914v11.943h-2.229v-43.814zM24.9 62.171h-8.457v-11.029h8.457v11.029z"></path>
</svg>
