<svg version="1.1" xmlns="http://www.w3.org/2000/svg" width="64" height="64" viewBox="0 0 64 64">
<title>policy-o</title>
<path fill="#333" d="M64 38.129c0-10.4-8.157-18.9-18.4-19.486 0.029-0.114 0.071-0.229 0.071-0.357v-16.971c0-0.729-0.586-1.314-1.314-1.314h-29.671c-0.343 0-0.686 0.143-0.929 0.386l-13.371 13.314c-0.243 0.243-0.386 0.586-0.386 0.929v48.043c0 0.729 0.586 1.314 1.314 1.314h43.086c0.729 0 1.314-0.586 1.314-1.314v-5.043c0-0.014 0-0.014 0-0.029 10.186-0.629 18.286-9.114 18.286-19.471zM13.557 4.3v9.014h-9.043l9.043-9.014zM43.086 61.357h-40.457v-45.4h12.243c0.729 0 1.314-0.586 1.314-1.314v-12h26.843v15.643c0 0.129 0.043 0.243 0.071 0.371-3.871 0.271-7.429 1.686-10.343 3.9-0.071-0.014-0.143-0.043-0.214-0.043h-22.414c-0.729 0-1.314 0.586-1.314 1.314s0.586 1.314 1.314 1.314h19.814c-0.843 0.943-1.6 1.971-2.243 3.071h-17.571c-0.729 0-1.314 0.586-1.314 1.314s0.586 1.314 1.314 1.314h16.271c-0.4 0.986-0.714 2.014-0.957 3.071h-15.314c-0.729 0-1.314 0.586-1.314 1.314s0.586 1.314 1.314 1.314h14.929c-0.043 0.514-0.071 1.029-0.071 1.543s0.043 1.029 0.071 1.529h-14.929c-0.729 0-1.314 0.586-1.314 1.314s0.586 1.314 1.314 1.314h15.314c0.229 1.057 0.557 2.086 0.943 3.071h-16.257c-0.729 0-1.314 0.586-1.314 1.314s0.586 1.314 1.314 1.314h17.557c0.643 1.1 1.4 2.129 2.243 3.071h-19.8c-0.729 0-1.314 0.586-1.314 1.314s0.586 1.314 1.314 1.314h22.657c2.914 2.2 6.443 3.6 10.3 3.871 0 0.014-0.014 0.029-0.014 0.043v3.8zM44.5 55.029c-9.3 0-16.871-7.586-16.871-16.9s7.571-16.9 16.871-16.9 16.871 7.586 16.871 16.9c0 9.314-7.571 16.9-16.871 16.9z"></path>
<path fill="#333" d="M56.857 28.686c-0.5-0.529-1.343-0.543-1.857-0.029l-17.214 16.6-3.557-6.414c-0.357-0.643-1.157-0.871-1.786-0.514-0.643 0.357-0.857 1.157-0.514 1.8l4.386 7.914c0.2 0.357 0.557 0.6 0.957 0.671 0.071 0.014 0.129 0.014 0.2 0.014 0.343 0 0.671-0.129 0.914-0.371l18.443-17.8c0.514-0.514 0.529-1.343 0.029-1.871z"></path>
</svg>
