<?xml version="1.0" encoding="utf-8"?>
<!-- Generator: Adobe Illustrator 24.2.1, SVG Export Plug-In . SVG Version: 6.00 Build 0)  -->
<svg version="1.1" id="Layer_1" xmlns="http://www.w3.org/2000/svg" xmlns:xlink="http://www.w3.org/1999/xlink" x="0px" y="0px"
	 viewBox="0 0 64 64" style="enable-background:new 0 0 64 64;" xml:space="preserve">
<style type="text/css">
	.st0{fill:#333333;}
</style>
<path class="st0" d="M22.4,8.9c5.7,0,10.3,4.6,10.3,10.3s-4.6,10.3-10.3,10.3s-10.3-4.6-10.3-10.3S16.7,8.9,22.4,8.9z M53.5,21.7v8
	h8v1.4h-8v8h-1.4v-8h-8v-1.4h8v-8C52.1,21.7,53.5,21.7,53.5,21.7z M31.4,37.7c6.1,0,10.9,4.9,10.9,11v4.2c0,1.2-1,2.3-2.3,2.3H4.8
	c-1.2,0-2.3-1-2.3-2.3v-4.2c0-6,4.9-11,10.9-11h1.1c2.5,1,5.1,1.6,7.8,1.6s5.4-0.5,7.8-1.6C30.2,37.7,31.3,37.7,31.4,37.7z
	 M22.4,6.4c-7.1,0-12.8,5.7-12.8,12.8S15.3,32,22.4,32s12.8-5.8,12.8-12.8S29.5,6.4,22.4,6.4C22.4,6.4,22.4,6.4,22.4,6.4z
	 M54.4,19.2h-3.2c-0.9,0-1.6,0.7-1.6,1.6v6.4h-6.4c-0.9,0-1.6,0.7-1.6,1.6V32c0,0.9,0.7,1.6,1.6,1.6h6.4V40c0,0.9,0.7,1.6,1.6,1.6
	h3.2c0.9,0,1.6-0.7,1.6-1.6v-6.4h6.4c0.9,0,1.6-0.7,1.6-1.6v-3.2c0-0.9-0.7-1.6-1.6-1.6H56v-6.4C56,19.9,55.3,19.2,54.4,19.2
	C54.4,19.2,54.4,19.2,54.4,19.2z M31.4,35.2h-1.6c-2.2,1-4.7,1.6-7.3,1.6s-5-0.6-7.3-1.6h-1.6C6,35.2,0,41.2,0,48.7v4.2
	c0,2.7,2.2,4.8,4.8,4.8H40c2.7,0,4.8-2.2,4.8-4.8v-4.2C44.8,41.2,38.8,35.2,31.4,35.2C31.4,35.2,31.4,35.2,31.4,35.2z"/>
</svg>
