<svg version="1.1" xmlns="http://www.w3.org/2000/svg" width="64" height="64" viewBox="0 0 64 64">
<title>calgary-city-o</title>
<path fill="#333" d="M63.571 37.557c-0.886-1.171-2.714-0.971-2.929-0.943-0.1 0.014-0.2 0.057-0.286 0.114-4.557 3.429-8.029 3.8-8 3.8-6.957 0-9.686-2.357-10.614-3.543 6.114-0.857 10.029 2.057 10.071 2.086 0.271 0.2 0.657 0.157 0.857-0.114s0.157-0.657-0.114-0.857c-0.114-0.086-1.814-1.357-4.714-2.057 0 0 0-0.014 0-0.014v-7.686c0-0.343-0.271-0.614-0.614-0.614h-1.429v-10.043c1.643 0.914 5.1 2.257 8.671 0.2v18.314c0 0.343 0.271 0.614 0.614 0.614s0.614-0.271 0.614-0.614v-19.471c0-0.229-0.129-0.443-0.343-0.557-0.214-0.1-0.457-0.086-0.643 0.057-4.5 3.414-8.957-0.014-9.157-0.157-0.186-0.143-0.443-0.171-0.657-0.071s-0.343 0.314-0.343 0.557v11.171h-2.7v-4c0-0.343-0.271-0.614-0.614-0.614h-11.957c-0.343 0-0.614 0.271-0.614 0.614v5.7h-9.8c-0.343 0-0.614 0.271-0.614 0.614v5.186h-3.8v-10.9h1c0.229 0 0.429-0.114 0.543-0.314l1.557-2.786c0.171-0.3 0.057-0.671-0.243-0.843s-0.671-0.057-0.843 0.243l-1.371 2.471h-1.243c-0.343 0-0.614 0.271-0.614 0.614 0 0.043 0 0.086 0.014 0.114v11.4h-2.614v-11.386c0.014-0.043 0.014-0.071 0.014-0.114 0-0.343-0.271-0.614-0.614-0.614h-1.271l-1.371-2.471c-0.171-0.3-0.543-0.4-0.843-0.243-0.3 0.171-0.4 0.543-0.243 0.843l1.557 2.786c0.114 0.2 0.314 0.314 0.543 0.314h1v10.9h-4.357c-0.343 0-0.614 0.271-0.614 0.614v5.286c0 0.343 0.271 0.614 0.614 0.614s0.614-0.271 0.614-0.614v-4.686h12.6v5.7c0 0.343 0.271 0.614 0.614 0.614s0.614-0.271 0.614-0.614v-11.514h9.186v13.4c-0.957 0.6-1.857 1.329-2.629 2.214-1.129-0.529-2.457-0.786-3.929-0.786h-0.286c-0.957 0-1.929 0-2.843 0.257-1.743-2.771-4.757-4.529-7.8-4.529-5.043 0-9.157 4.1-9.157 9.157 0 0.343 0.271 0.614 0.614 0.614s0.614-0.271 0.614-0.614c0-4.371 3.557-7.929 7.929-7.929 2.771 0 5.514 1.7 7 4.343 0.157 0.271 0.486 0.386 0.771 0.271 0.829-0.343 1.814-0.343 2.871-0.343h0.286c1.457 0 2.743 0.286 3.786 0.857 0.257 0.143 0.586 0.071 0.771-0.157 1.957-2.4 4.771-3.786 7.743-3.786 2.457 0 5.057 0.786 6.629 2 0.229 0.171 0.543 0.171 0.757 0 0.229-0.171 0.3-0.486 0.171-0.743-1.6-3.443-0.957-5.629-0.586-6.457 1.486 1.457 4.629 3.314 11.014 3.314 0 0 0 0 0.014 0 0.157-0.014 3.743-0.4 8.543-3.943 0.429-0.029 1.286 0.029 1.629 0.486 0.371 0.5 0.086 1.414-0.2 2.086-0.043 0.114-0.057 0.229-0.043 0.343 0 0.014 0.3 1.871-0.957 4.214-0.157 0.3-0.043 0.671 0.257 0.829 0.086 0.043 0.186 0.071 0.286 0.071 0.214 0 0.429-0.114 0.543-0.329 1.229-2.286 1.171-4.214 1.114-4.814 0.543-1.3 0.543-2.371-0.029-3.114zM29.929 24.343h10.729v3.386h-5.186c-0.343 0-0.614 0.271-0.614 0.614v9.8h-4.914v-13.8zM34.429 42.414c-1.571 0-3.1 0.343-4.514 0.986v-4.029h5.529c0.343 0 0.614-0.271 0.614-0.614v-9.8h10.557v6.843c-1.7-0.271-3.714-0.3-5.986 0.143-0.171 0.029-0.329 0.143-0.414 0.3s-0.1 0.343-0.043 0.514c0.014 0.043 0.129 0.314 0.371 0.686-0.243 0.386-1.486 2.571-0.343 6.257-1.657-0.814-3.729-1.286-5.771-1.286z"></path>
<path fill="#333" d="M9.429 14.414h4.957c0.343 0 0.614-0.271 0.614-0.614s-0.271-0.614-0.614-0.614h-1.857v-3.143c0-0.343-0.271-0.614-0.614-0.614s-0.629 0.271-0.629 0.614v3.143h-1.857c-0.343 0-0.614 0.271-0.614 0.614s0.271 0.614 0.614 0.614z"></path>
<path fill="#333" d="M58.514 48.557c-38.386-0.5-57.871 4.757-58.057 4.8-0.329 0.086-0.514 0.429-0.429 0.757 0.071 0.271 0.329 0.457 0.6 0.457 0.057 0 0.114 0 0.171-0.029 0.186-0.057 19.514-5.257 57.729-4.757 0 0 0 0 0.014 0 0.343 0 0.614-0.271 0.614-0.614-0.029-0.329-0.3-0.614-0.643-0.614z"></path>
<path fill="#333" d="M6.443 17.486h10.929c0.343 0 0.614-0.271 0.614-0.614s-0.271-0.614-0.614-0.614h-10.929c-0.343 0-0.614 0.271-0.614 0.614s0.271 0.614 0.614 0.614z"></path>
<path fill="#333" d="M59.371 44.214c0 0.6-0.486 1.086-1.086 1.086s-1.086-0.486-1.086-1.086c0-0.6 0.486-1.086 1.086-1.086s1.086 0.486 1.086 1.086z"></path>
<path fill="#333" d="M56.357 44.214c0 0.6-0.486 1.086-1.086 1.086s-1.086-0.486-1.086-1.086c0-0.6 0.486-1.086 1.086-1.086s1.086 0.486 1.086 1.086z"></path>
<path fill="#333" d="M53.343 44.214c0 0.6-0.486 1.086-1.086 1.086s-1.086-0.486-1.086-1.086c0-0.6 0.486-1.086 1.086-1.086s1.086 0.486 1.086 1.086z"></path>
</svg>
